t01.lv3
pemax
t02.lv3
ofuno
t03.lv3
hoxek
t04.lv3
obofe
t05.lv3
qipav
t06.lv3
igohi
t07.lv3
riqip
t08.lv3
axiqu
t09.lv3
liceb
t10.lv3
uqiwe
t11.lv3
saqaj
t12.lv3
ipobe
t13.lv3
dalop
t14.lv3
uhepe
t15.lv3
wuvah
t16.lv3
udipu
t17.lv3
nulep
t18.lv3
ikobe
t19.lv3
satet
t20.lv3
ebimo
;kkkkk